﻿AICODE,ORGCODE
1010,C-10
1012,C-12
1013,C-13
1015,C-15
102,C-2
104,C-4
106,C-6
107,C-7
108,C-8
109,C-9
201,M-1
2010,M-10
2011,M-11
2012,M-12
2016,M-16
2017,M-17
2018,M-18
205,M-5
206,M-6
207,M-7
301,MC-1
3011,MC-11
3012,MC-12
3015,MC-15
3019,MC-19
302,MC-2
303,MC-3
304,MC-4
305,MC-5
307,MC-7
401,N-1
4010,N-10
4012,N-12
4014,N-14
4015,N-15
4016,N-16
4017,N-17
4019,N-19
402,N-2
403,N-3
404,N-4
407,N-7
409,N-9
501,NE-1
5010,NE-10
502,NE-2
504,NE-4
505,NE-5
506,NE-6
507,NE-7
508,NE-8
509,NE-9
601,U-1
6010,U-10
6012,U-12
602,U-2
604,U-4
605,U-5
606,U-6
607,U-7
608,U-8
609,U-9
